{
  "defaultSeverity": "error",
  "extends": [
    "tslint:latest",
    "tslint-config-prettier"
  ],
  "jsRules": {},
  "rules": {
    "no-implicit-dependencies": false,
    "no-submodule-imports": false,
    "no-var-requires": false,
    "no-invalid-template-strings": false,
    "no-empty-interface": false,
    "no-console": false
  },
  "rulesDirectory": []
}